{
  "artifactGenerations" : [ ],
  "artifactId" : "trading-project",
  "groupId" : "org.finos.legend.trading",
  "metamodelDependencies" : [ ],
  "projectDependencies" : [ ],
  "projectId" : "UAT-27497277",
  "projectStructureVersion" : {
    "extensionVersion" : null,
    "version" : 0
  },
  "projectType" : "PROTOTYPE"
}